Started at: 1683295756193 - ended at 1683295799153 -> took 42.96 seconds (2.69 seconds per iteration)
Number of files: 16 (total: 567)
Chunk size: 16
Stopped at iteration 1
Average % of non-english lines in iteration: 27.54% (0 lines)
Number of errors: 0
Error lines:
