Started at: 1683296203357 - ended at 1683296240126 -> took 36.77 seconds (2.30 seconds per iteration)
Number of files: 16 (total: 567)
Chunk size: 16
Stopped at iteration 1
Average % of non-english lines in iteration: 27.54% (0 lines)
Number of errors: 0
Error lines:
